{
    "c2array": true,
    "size": [140],
    "data":[
		[
			["Asesor legal de una empresa minera."],
			["Empleado del Ministerio de Justicia."],
			["Fiscal de la Nación."],
			["Director Técnico de la Selección Peruana."],
			[""],
			[0],[0],[0],[1],[0],
			["Argumentación jurídica."],
			["Tácticas de venta online."],
			["Estrategias de marketing."],
			["Amplio conocimiento sobre el cuerpo humano."],
			[""],
			[1],[0],[0],[0],[0],
			["Grado Técnico en Diseño Gráfico."],
			["Bachiller en Derecho y Titulado como Abogado."],
			["Bachiller en Ciencias de la Comunicación."],
			["Maestro de Leyes."],
			[""],
			[0],[1],[0],[0],[0],
			["FACULTAD DE DERECHO"],
			["Identifica cuál de los siguientes trabajos NO es para un egresado de nuestra Facultad de Derecho."],
			["¿Qué habilidad adquirirás en UPN dentro de la carrera de Derecho?"],
			["¿Qué grado o título obtendrás al culminar tu carrera en nuestra Facultad de Derecho?"]
		],[
			["CNN."],
			["MTV."],
			["RPP."],
			["Televisa."],
			[""],
			[1],[0],[0],[0],[0],
			["Conecta UPN."],
			["Díatreinta."],
			["Señal UPN."],
			["UPN al Día"],
			[""],
			[0],[1],[0],[0],[0],
			["A cocinar deliciosos platos de nuestra gastronomía."],
			["A dirigir proyectos audiovisuales para diversos medios y plataformas."],
			["Cómo liderar un equipo deportivo"],
			["Diseño de planos de edificios."],
			[""],
			[0],[1],[0],[0],[0],
			["FACULTAD DE COMUNICACIONES"],
			["¿Con qué cadena de noticias internacional tiene convenio la Facultad de Comunicaciones de la UPN?"],
			["¿Cuál es el nombre de la Revista Digital dirigida por la Facultad de Comunicaciones?"],
			["¿Qué puedes aprender en la facultad de comunicaciones?"]
		],[
			["Jardinería y Diseño de Áreas Verdes."],
			["Construcción Civil."],
			["Carrera de Arquitectura y Diseño de interiores."],
			["Administración Bancaria."],
			[""],
			[0],[0],[1],[0],[0],
			["Desarrollo de una web."],
			["Diseño de avisos de publicidad."],
			["Dibujar los planos de un edificio."],
			["Dirigir un equipo de voley."],
			[""],
			[0],[0],[1],[0],[0],
			["Diseñar logos para marcas."],
			["Crear productos innovadores para el transporte público."],
			["Implementar campañas de vacunación."],
			["Ser defensor público en un juicio."],
			[""],
			[0],[1],[0],[0],[0],
			["FACULTAD DE ARQUITECTURA Y DISEÑO"],
			["¿Cuál de estas carreras pertenece a la Facultad de Arquitectura de UPN?"],
			["¿Cuál de los siguientes trabajos es realizado por un arquitecto?"],
			["¿Cuál de las siguientes labores es realizada por un Arquitecto Industrial?"]
		],[
			["Sala de Prensa."],
			["Área de Edición de Video."],
			["Laboratorios especializados por facultad."],
			["Cuarto Oscuro de Fotografía."],
			[""],
			[0],[0],[1],[0],[0],
			["Desarrollar la usabilidad de la web."],
			["Mejorar el proceso de cualquier empresa."],
			["Finanzas avanzadas."],
			["Diseño gráfico."],
			[""],
			[0],[1],[0],[0],[0],
			["Jefe de procesos."],
			["Camarógrafo de un Canal de TV."],
			["Asesor Financiero."],
			["Diseñador de Moda."],
			[""],
			[1],[0],[0],[0],[0],
			["FACULTAD DE INGENIERIA"],
			["¿Con cuál de estos espacios especializados cuenta la Facultad de Ingeniería?"],
			["¿Qué tipo de funciones puede realizar un ingeniero industrial?"],
			["¿En cuál de los siguientes puestos de trabajo se podría desempeñar un egresado de la Facultad de Ingeniería?"]
		
		],[
			["Administración y Marketing."],
			["Diseño Gráfico."],
			["Administración y Finanzas."],
			["Administración y Servicio Turístico."],
			[""],
			[0],[1],[0],[0],[0],
			["Trabaja como administrador de un atelier."],
			["Desarrolla su propia cadena de restaurantes."],
			["Diseña los planos para la construcción de centros comerciales."],
			["Programa páginas web."],
			[""],
			[0],[1],[0],[0],[0],
			["Menos de 100."],
			["25 en Lima y 30 en el resto del país."],
			["Más de 500."],
			["254."],
			[""],
			[0],[0],[1],[0],[0],
			["FACULTAD DE NEGOCIOS"],
			["¿Cuál de las siguientes carreras NO se estudia en nuestra Facultad de Negocios?"],
			["¿En qué puede trabajar un egresado de la carrera de Gastronomía y Gestión de Restaurantes?"],
			["¿Cuántos convenios de empleabilidad con empresas tiene UPN para sus exalumnos?"]
		],[
			["Hospital Simulado."],
			["Estudio de Abogados."],
			["Taller de Pintura."],
			["Teatro."],
			[""],
			[1],[0],[0],[0],[0],
			["1"],
			["3"],
			["5"],
			["Ninguno."],
			[""],
			[0],[0],[1],[0],[0],
			["11"],
			["8"],
			["5"],
			["9"],
			[""],
			[1],[0],[0],[0],[0],
			["FACULTAD DE CIENCIA DE LA SALUD"],
			["¿Cuál de estos espacios de práctica es parte de nuestra Facultad de Ciencias de la Salud?"],
			["¿Cuántos laboratorios tiene nuestra Facultad de Ciencias de la Salud?"],
			["¿A cuántos países puedes hacer intercambio estudiantil como alumno de la Facultad de Ciencias de la Salud?"]
		]
	]
	
}