<svg width="516" height="516" viewBox="0 0 516 516" fill="none" xmlns="http://www.w3.org/2000/svg">
<g filter="url(#filter0_f)">
<circle cx="257.5" cy="257.5" r="133.5" fill="black" fill-opacity="0.5"/>
</g>
<circle cx="258" cy="258" r="257.5" stroke="#FDBA30" stroke-opacity="0.3"/>
<path d="M437 258.5C437 357.08 356.862 437 258 437C159.138 437 79 357.08 79 258.5C79 159.92 159.138 80 258 80C356.862 80 437 159.92 437 258.5Z" stroke="#FDBA30" stroke-opacity="0.3" stroke-width="2"/>
<path d="M385 258.5C385 328.357 328.147 385 258 385C187.853 385 131 328.357 131 258.5C131 188.643 187.853 132 258 132C328.147 132 385 188.643 385 258.5Z" stroke="#FDBA30" stroke-opacity="0.5" stroke-width="4"/>
<circle cx="258.056" cy="258.377" r="110.523" fill="#FDBA30"/>
<defs>
<filter id="filter0_f" x="90" y="90" width="335" height="335" filterUnits="userSpaceOnUse" color-interpolation-filters="sRGB">
<feFlood flood-opacity="0" result="BackgroundImageFix"/>
<feBlend mode="normal" in="SourceGraphic" in2="BackgroundImageFix" result="shape"/>
<feGaussianBlur stdDeviation="17" result="effect1_foregroundBlur"/>
</filter>
</defs>
</svg>
