<svg width="25" height="26" viewBox="0 0 25 26" fill="none" xmlns="http://www.w3.org/2000/svg">
<rect x="0.121338" y="23" width="32" height="3" rx="1.5" transform="rotate(-45 0.121338 23)" fill="black"/>
<rect x="2.12134" width="32" height="3" rx="1.5" transform="rotate(45 2.12134 0)" fill="black"/>
</svg>
